<?xml version="1.0" standalone="no"?>
<!DOCTYPE svg PUBLIC "-//W3C//DTD SVG 20010904//EN"
 "http://www.w3.org/TR/2001/REC-SVG-20010904/DTD/svg10.dtd">
<svg version="1.0" xmlns="http://www.w3.org/2000/svg"
 width="600.000000pt" height="600.000000pt" viewBox="0 0 600.000000 600.000000"
 preserveAspectRatio="xMidYMid meet">
<metadata>
Created by potrace 1.11, written by Peter Selinger 2001-2013
</metadata>
<g transform="translate(0.000000,600.000000) scale(0.100000,-0.100000)"
fill="#000000" stroke="none">
<path d="M0 3000 l0 -3000 3000 0 3000 0 0 3000 0 3000 -3000 0 -3000 0 0
-3000z m4193 1035 c105 -18 227 -61 304 -106 32 -19 92 -68 133 -109 113 -112
169 -233 183 -397 l4 -53 -187 0 -188 0 -11 62 c-32 182 -154 283 -370 308
-211 24 -392 -43 -451 -166 -19 -38 -22 -57 -18 -122 5 -92 33 -145 100 -189
72 -48 106 -59 439 -148 178 -48 345 -95 371 -105 73 -27 137 -68 197 -124
114 -108 173 -246 173 -406 0 -189 -48 -306 -177 -436 -66 -67 -97 -89 -175
-128 -233 -114 -535 -138 -824 -65 -249 63 -440 228 -517 445 -23 64 -48 189
-49 242 l0 32 189 0 188 0 6 -70 c16 -188 154 -324 375 -369 79 -16 267 -14
337 4 186 49 283 166 273 331 -6 86 -34 144 -95 190 -67 51 -97 61 -602 194
-211 55 -308 95 -395 160 -238 180 -262 564 -50 799 139 154 362 239 630 240
67 1 160 -6 207 -14z m-1791 -50 c263 -46 441 -202 504 -440 14 -51 19 -106
19 -205 0 -156 -17 -236 -72 -342 -52 -100 -134 -177 -245 -231 -154 -75 -189
-80 -610 -85 l-368 -4 0 -409 0 -409 -185 0 -185 0 0 1070 0 1070 529 0 c421
0 546 -3 613 -15z"/>
<path d="M1637 3693 c-4 -3 -7 -163 -7 -355 l0 -349 333 3 332 3 65 31 c111
54 170 129 190 244 20 112 -4 229 -64 310 -45 62 -118 97 -232 110 -98 11
-607 14 -617 3z"/>
</g>
</svg>
